Chapter 7
…
(3.21)

7.92

(2.95)

0.04

27.63

Regression estimates for average treatment effects

df_analysis

## # A tibble: 197 × 4
##    locality_identifier treatment_locality pre_health_exp post_health_exp
##                  <dbl>              <dbl>          <dbl>           <dbl>
##  1                   2                  0           14.6           17.9 
##  2                   3                  1           13.6           10.1 
##  3                   4                  0           14.7           17.6 
##  4                   5                  1           14.0            7.63
##  5                   6                  0           13.9           15.2 
##  6                   7                  1           16.1            9.23
##  7                   9                  1           14.8            8.65
##  8                  10                  0           16.2           24.3 
##  9                  11                  1           14.4            8.65
## 10                  12                  0           16.0           16.7 
## # … with 187 more rows
…
